<svg viewBox="0 0 24 24" xmlns="http://www.w3.org/2000/svg">
  <path fill="none" d="M23 20C23 21.1045 22.2423 22 21.3077 22H2.69231C1.75767 22 1 21.1045 1 20" stroke="black" stroke-width="2" stroke-linecap="round" stroke-linejoin="round"/>
  <path fill="none" fill-rule="evenodd" clip-rule="evenodd" d="M12 11C14.4853 11 16.5 8.98529 16.5 6.5C16.5 4.01472 14.4853 2 12 2C9.51472 2 7.5 4.01472 7.5 6.5C7.5 8.98529 9.51472 11 12 11Z" stroke="black" stroke-width="2" stroke-linecap="round" stroke-linejoin="round"/>
  <path fill="none" d="M23 20C20.8487 16.9249 16.6141 15 12 15C7.3859 15 3.15121 16.9249 1 20" stroke="black" stroke-width="2" stroke-linecap="round" stroke-linejoin="round"/>
</svg>
